{
  "project_info": {
    "project_number": "134909274275",
    "firebase_url": "https://intym-dev.firebaseio.com",
    "project_id": "intym-dev",
    "storage_bucket": "intym-dev.appspot.com"
  },
  "client": [
    {
      "client_info": {
        "mobilesdk_app_id": "1:134909274275:android:7aaebbccd86ab978a5f716",
        "android_client_info": {
          "package_name": "com.honeywell.hbt.intym"
        }
      },
      "oauth_client": [
        {
          "client_id": "134909274275-b14ljbp1fum3fj1hc5b71l263u83ad7p.apps.googleusercontent.com",
          "client_type": 3
        }
      ],
      "api_key": [
        {
          "current_key": "AIzaSyCnZ9T3s10bs9PJocJebx7iW-p0EtgdeyM"
        }
      ],
      "services": {
        "appinvite_service": {
          "other_platform_oauth_client": [
            {
              "client_id": "134909274275-b14ljbp1fum3fj1hc5b71l263u83ad7p.apps.googleusercontent.com",
              "client_type": 3
            },
            {
              "client_id": "134909274275-ntlvr33r2mcgr1pgurb5ui84bqp8jdon.apps.googleusercontent.com",
              "client_type": 2,
              "ios_info": {
                "bundle_id": "com.intymapp"
              }
            }
          ]
        }
      }
    },
    {
      "client_info": {
        "mobilesdk_app_id": "1:134909274275:android:ffdf8ec4bb0fbd2ca5f716",
        "android_client_info": {
          "package_name": "com.intymapp"
        }
      },
      "oauth_client": [
        {
          "client_id": "134909274275-b14ljbp1fum3fj1hc5b71l263u83ad7p.apps.googleusercontent.com",
          "client_type": 3
        }
      ],
      "api_key": [
        {
          "current_key": "AIzaSyCnZ9T3s10bs9PJocJebx7iW-p0EtgdeyM"
        }
      ],
      "services": {
        "appinvite_service": {
          "other_platform_oauth_client": [
            {
              "client_id": "134909274275-b14ljbp1fum3fj1hc5b71l263u83ad7p.apps.googleusercontent.com",
              "client_type": 3
            },
            {
              "client_id": "134909274275-ntlvr33r2mcgr1pgurb5ui84bqp8jdon.apps.googleusercontent.com",
              "client_type": 2,
              "ios_info": {
                "bundle_id": "com.intymapp"
              }
            }
          ]
        }
      }
    }
  ],
  "configuration_version": "1"
}
